-------------------------------------------------------------------------------
Test set: info.hccis.bo.CamperTest
-------------------------------------------------------------------------------
Tests run: 2, Failures: 0, Errors: 0, Skipped: 0, Time elapsed: 0.065 sec
